/Users/adrianmalata/Desktop/Za Rączkę/Airport automatic landing system/src/main/java/airplane/utilities/NameGenerator.java
/Users/adrianmalata/Desktop/Za Rączkę/Airport automatic landing system/src/main/java/dto/Runway.java
/Users/adrianmalata/Desktop/Za Rączkę/Airport automatic landing system/src/main/java/simulation/Simulation.java
/Users/adrianmalata/Desktop/Za Rączkę/Airport automatic landing system/src/main/java/visualisation/utilities/View.java
/Users/adrianmalata/Desktop/Za Rączkę/Airport automatic landing system/src/main/java/simulation/utilities/MessageManager.java
/Users/adrianmalata/Desktop/Za Rączkę/Airport automatic landing system/src/main/java/airport/AirportServer.java
/Users/adrianmalata/Desktop/Za Rączkę/Airport automatic landing system/src/main/java/utilities/DatabaseService.java
/Users/adrianmalata/Desktop/Za Rączkę/Airport automatic landing system/src/main/java/dto/Command.java
/Users/adrianmalata/Desktop/Za Rączkę/Airport automatic landing system/src/main/java/dto/Space.java
/Users/adrianmalata/Desktop/Za Rączkę/Airport automatic landing system/src/main/java/airport/Airport.java
/Users/adrianmalata/Desktop/Za Rączkę/Airport automatic landing system/src/main/java/utilities/Validator.java
/Users/adrianmalata/Desktop/Za Rączkę/Airport automatic landing system/src/main/java/entities/AirplaneEntity.java
/Users/adrianmalata/Desktop/Za Rączkę/Airport automatic landing system/src/main/java/dto/AirplaneStatus.java
/Users/adrianmalata/Desktop/Za Rączkę/Airport automatic landing system/src/main/java/dto/PointPosition.java
/Users/adrianmalata/Desktop/Za Rączkę/Airport automatic landing system/src/main/java/airport/utilities/InitialPatternXZCalculator.java
/Users/adrianmalata/Desktop/Za Rączkę/Airport automatic landing system/src/main/java/visualisation/utilities/GroupViewAdjuster.java
/Users/adrianmalata/Desktop/Za Rączkę/Airport automatic landing system/src/main/java/airplane/utilities/MessageManager.java
/Users/adrianmalata/Desktop/Za Rączkę/Airport automatic landing system/src/main/java/dto/Coordinate.java
/Users/adrianmalata/Desktop/Za Rączkę/Airport automatic landing system/src/main/java/dto/FlightPattern.java
/Users/adrianmalata/Desktop/Za Rączkę/Airport automatic landing system/src/main/java/utilities/ManagedServerSocket.java
/Users/adrianmalata/Desktop/Za Rączkę/Airport automatic landing system/src/main/java/visualisation/utilities/Point.java
/Users/adrianmalata/Desktop/Za Rączkę/Airport automatic landing system/src/main/java/entities/LandingEntity.java
/Users/adrianmalata/Desktop/Za Rączkę/Airport automatic landing system/src/main/java/airplane/utilities/CommandExecutor.java
/Users/adrianmalata/Desktop/Za Rączkę/Airport automatic landing system/src/main/java/airport/utilities/CollisionHandler.java
/Users/adrianmalata/Desktop/Za Rączkę/Airport automatic landing system/src/main/java/airport/AirportSystem.java
/Users/adrianmalata/Desktop/Za Rączkę/Airport automatic landing system/src/main/java/visualisation/utilities/WallMaker.java
/Users/adrianmalata/Desktop/Za Rączkę/Airport automatic landing system/src/main/java/visualisation/utilities/RunwayMaker.java
/Users/adrianmalata/Desktop/Za Rączkę/Airport automatic landing system/src/main/java/airplane/utilities/InitialDestinationCalculator.java
/Users/adrianmalata/Desktop/Za Rączkę/Airport automatic landing system/src/main/java/airplane/AirplaneTraffic.java
/Users/adrianmalata/Desktop/Za Rączkę/Airport automatic landing system/src/main/java/airplane/utilities/InitialPositionGenerator.java
/Users/adrianmalata/Desktop/Za Rączkę/Airport automatic landing system/src/main/java/airport/utilities/MessageManager.java
/Users/adrianmalata/Desktop/Za Rączkę/Airport automatic landing system/src/main/java/airport/utilities/StatusAnalyzer.java
/Users/adrianmalata/Desktop/Za Rączkę/Airport automatic landing system/src/main/java/airport/AirportData.java
/Users/adrianmalata/Desktop/Za Rączkę/Airport automatic landing system/src/main/java/visualisation/Visualisation.java
/Users/adrianmalata/Desktop/Za Rączkę/Airport automatic landing system/src/main/java/utilities/Server.java
/Users/adrianmalata/Desktop/Za Rączkę/Airport automatic landing system/src/main/java/visualisation/utilities/PointMaker.java
/Users/adrianmalata/Desktop/Za Rączkę/Airport automatic landing system/src/main/java/utilities/PropertiesUtilities.java
/Users/adrianmalata/Desktop/Za Rączkę/Airport automatic landing system/src/main/java/utilities/Client.java
/Users/adrianmalata/Desktop/Za Rączkę/Airport automatic landing system/src/main/java/dto/InitialPattern.java
/Users/adrianmalata/Desktop/Za Rączkę/Airport automatic landing system/src/main/java/utilities/AirplaneCommunication.java
/Users/adrianmalata/Desktop/Za Rączkę/Airport automatic landing system/src/main/java/airplane/AirplaneSystem.java
/Users/adrianmalata/Desktop/Za Rączkę/Airport automatic landing system/src/main/java/entities/CrashEntity.java
/Users/adrianmalata/Desktop/Za Rączkę/Airport automatic landing system/src/main/java/entities/GreetingAndRejectionEntity.java
/Users/adrianmalata/Desktop/Za Rączkę/Airport automatic landing system/src/main/java/airplane/AirplaneClient.java
/Users/adrianmalata/Desktop/Za Rączkę/Airport automatic landing system/src/main/java/airport/utilities/NextDestinationCalculator.java
/Users/adrianmalata/Desktop/Za Rączkę/Airport automatic landing system/src/main/java/dto/HoldingPattern.java
/Users/adrianmalata/Desktop/Za Rączkę/Airport automatic landing system/src/main/java/airplane/Airplane.java
/Users/adrianmalata/Desktop/Za Rączkę/Airport automatic landing system/src/main/java/utilities/IOCommunication.java
